<?xml version="1.0" encoding="iso-8859-1"?>
<!-- Generator: Adobe Illustrator 19.0.0, SVG Export Plug-In . SVG Version: 6.00 Build 0)  -->
<svg version="1.1" id="Layer_1" xmlns="http://www.w3.org/2000/svg" xmlns:xlink="http://www.w3.org/1999/xlink" x="0px" y="0px"
	 viewBox="0 0 265.923 265.923" style="enable-background:new 0 0 265.923 265.923;" xml:space="preserve">
<g>
	<g>
		<g>
			<path d="M134.654,0.06C134.363,0.02,134.066,0,133.766,0l-0.617,0.011L132.161,0c-0.3,0-0.593,0.02-0.882,0.06
				C73.988,1.389,27.505,48.868,27.505,106.261c0,74.931,84.449,144.972,101.376,158.251c1.197,0.941,2.641,1.411,4.082,1.411
				c1.441,0,2.885-0.47,4.082-1.411c16.929-13.279,101.374-83.32,101.374-158.251C238.418,48.868,191.946,1.391,134.654,0.06z
				 M132.964,250.841c-22.451-18.312-92.233-80.408-92.233-144.577c0-50.475,41.061-92.193,91.534-92.993
				c0.176-0.002,0.348-0.011,0.518-0.029l0.181,0.002l0.174-0.002c0.174,0.015,0.348,0.026,0.525,0.029
				c50.471,0.8,91.532,42.518,91.532,92.993C225.191,170.432,155.413,232.529,132.964,250.841z"/>
			<path d="M196.742,67.676c0.154-5.526-1.869-10.68-5.7-14.511c-3.681-3.686-8.632-5.714-13.932-5.714
				c-5.601,0-10.907,2.224-15.1,6.424l-16.184,17.298L85.748,53.185L72.769,66.159c-3.668,3.695-3.657,9.695,0.022,13.372
				l0.664,0.666l42.006,23.119l-15.92,16.195l-18.951-3.869l-8.859,8.859c-1.653,1.655-2.564,3.858-2.564,6.194
				c0,2.343,0.915,4.548,2.57,6.196l35.843,35.843c1.653,1.655,3.855,2.566,6.194,2.566c2.352,0,4.559-0.919,6.196-2.568
				l8.862-8.853l-3.963-19.317l16.107-15.882l23.307,42.344l0.67,0.67c1.788,1.779,4.164,2.76,6.686,2.76
				c2.522,0,4.896-0.981,6.69-2.771l12.959-12.957l-18.104-60.483l17.304-16.198C194.37,78.164,196.592,73.061,196.742,67.676z
				 M181.294,72.541l-23.133,21.645l18.19,60.774l-3.75,3.75l-28.467-51.719l-33.663,33.198l3.974,19.374l-0.668,0.666
				l-29.532-29.534l0.668-0.668l19.024,3.882l33.189-33.764L85.762,71.871l3.754-3.752l60.371,18.074l21.631-23.126
				c1.541-1.541,3.527-2.39,5.592-2.39c1.766,0,3.393,0.652,4.576,1.838c1.237,1.237,1.885,2.936,1.834,4.788
				C183.465,69.296,182.617,71.21,181.294,72.541z"/>
		</g>
	</g>
</g>
<g>
</g>
<g>
</g>
<g>
</g>
<g>
</g>
<g>
</g>
<g>
</g>
<g>
</g>
<g>
</g>
<g>
</g>
<g>
</g>
<g>
</g>
<g>
</g>
<g>
</g>
<g>
</g>
<g>
</g>
</svg>
